{
  "characters": [
    {
      "id": 1,
      "name": "Pierre",
      "surname": "rockD",
      "description": "il addore les cailloux !! ",
      "game": "Minecraft",
      "items": [
        1
      ],
      "level": "30"
    },
    {
      "id": 2,
      "name": "Mario",
      "surname": "Mario",
      "description": "un plombier proffesionel ",
      "game": "Mario Bros.",
      "items": [],
      "level": 10,
      "uri": "http://localhost:3000/characters/2"
    },
    {
      "id": 3,
      "name": "Test",
      "surname": "Re",
      "description": "teeds",
      "game": "FMFD",
      "items": [
        1,
        3
      ],
      "level": "5",
      "uri": "http://localhost:3000/characters/22"
    },
    {
      "id": 4,
      "name": "Steve",
      "surname": "Steve",
      "description": "Personnage principal de minecraft",
      "game": "Minecraft",
      "items": [
        1
      ],
      "level": "0",
      "uri": "http://localhost:3000/characters/4"
    },
    {
      "id": 5,
      "name": "Glados",
      "surname": "©",
      "description": "GLaDOS is a fictional artificially superintelligent computer system from the video game series Portal. GLaDOS later appeared in The Lab and Lego Dimensions. The character was created by Erik Wolpaw and Kim Swift and voiced by Ellen McLain",
      "game": "Portal",
      "items": [
        2
      ],
      "level": "450",
      "uri": "http://localhost:3000/characters/5"
    },
    {
      "id": 6,
      "name": "Luigi",
      "surname": "Luigi",
      "description": "Luigi frere de mario",
      "game": "Mario",
      "items": [],
      "level": "45",
      "uri": "http://localhost:3000/characters/6"
    }
  ]
}